Research Design and Analysis - Bootcamp Part 2: Starting with Data
…
mutate(): create new columns by using information from other columns

group_by() and summarise(): create summary statistics on grouped data

arrange(): sort results

count(): count discrete values

Selecting columns and filtering rows

To select columns of a data frame, use select(). The first argument to this function is the data frame (nhanes), and the subsequent arguments are the columns to keep.

select(nhanes, sex, age.years, dental.decay.present, hba1c)

# A tibble: 3,346 × 4
   sex    age.years dental.decay.present hba1c
   <chr>      <dbl> <lgl>                <dbl>
 1 Female        13 FALSE                  5.1
 2 Female        15 FALSE                  4.7
 3 Male          16 FALSE                  6.2
 4 Male          15 FALSE                  5.3
 5 Female        13 FALSE                  5.1
 6 Female        15 FALSE                  5  
 7 Male          15 FALSE                  5.2
 8 Female        16 FALSE                  5  
 9 Female        16 FALSE                  5.1
10 Male          13 FALSE                  5.1
# ℹ 3,336 more rows

To select all columns except certain ones, put a “-” in front of the variable to exclude it.

select(nhanes, -sequence.id, -family.PIR)

# A tibble: 3,346 × 9
   age.years sex    ethnicity                    birthplace dental.decay.present
       <dbl> <chr>  <chr>                        <chr>      <lgl>               
 1        13 Female Non-Hispanic White           Born in 5… FALSE               
 2        15 Female Non-Hispanic Black           Born in 5… FALSE               
 3        16 Male   Non-Hispanic Black           Born in 5… FALSE               
 4        15 Male   Other Race - Including Mult… Born in 5… FALSE               
 5        13 Female Mexican American             Born in 5… FALSE               
 6        15 Female Non-Hispanic White           Born in 5… FALSE               
 7        15 Male   Non-Hispanic Black           Born in 5… FALSE               
 8        16 Female Non-Hispanic White           Born in 5… FALSE               
 9        16 Female Non-Hispanic White           Born in 5… FALSE               
10        13 Male   Mexican American             Born in 5… FALSE               
# ℹ 3,336 more rows
# ℹ 4 more variables: dental.restoration.present <lgl>, plasma.glucose <dbl>,
#   hba1c <dbl>, bmi <dbl>

This will select all the variables in nhanes except sequence.id and family.PIR.

To choose rows based on a specific criteria, use filter():

filter(nhanes, sex == "Male")

# A tibble: 1,703 × 11
   sequence.id age.years sex   ethnicity                   birthplace family.PIR
         <dbl>     <dbl> <chr> <chr>                       <chr>           <dbl>
 1       32326        16 Male  Non-Hispanic Black          Born in 5…       1.24
 2       32369        15 Male  Other Race - Including Mul… Born in 5…       0.93
 3       31129        15 Male  Non-Hispanic Black          Born in 5…       2.71
 4       31458        13 Male  Mexican American            Born in 5…       3.76
 5       31763        18 Male  Mexican American            Born in 5…       3.1 
 6       31848        16 Male  Non-Hispanic White          Born in 5…       5   
 7       31882        16 Male  Non-Hispanic White          Born in 5…       1.82
 8       32758        13 Male  Non-Hispanic Black          Born in 5…       1.72
 9       32831        15 Male  Mexican American            Born in 5…       1.03
10       32840        13 Male  Non-Hispanic White          Born in 5…       5   
# ℹ 1,693 more rows
# ℹ 5 more variables: dental.decay.present <lgl>,
#   dental.restoration.present <lgl>, plasma.glucose <dbl>, hba1c <dbl>,
#   bmi <dbl>

filter(nhanes, sex == "Male" & plasma.glucose > 80)

# A tibble: 753 × 11
   sequence.id age.years sex   ethnicity          birthplace          family.PIR
         <dbl>     <dbl> <chr> <chr>              <chr>                    <dbl>
 1       31882        16 Male  Non-Hispanic White Born in 50 US Stat…       1.82
 2       32758        13 Male  Non-Hispanic Black Born in 50 US Stat…       1.72
 3       32831        15 Male  Mexican American   Born in 50 US Stat…       1.03
 4       33165        18 Male  Non-Hispanic Black Born in 50 US Stat…       0.73
 5       33215        17 Male  Mexican American   Born in 50 US Stat…      NA   
 6       31698        14 Male  Non-Hispanic Black Born in 50 US Stat…       4.55
 7       32275        13 Male  Mexican American   Born in 50 US Stat…       3.76
 8       33870        17 Male  Non-Hispanic Black Born in 50 US Stat…      NA   
 9       34097        14 Male  Non-Hispanic Black Born in 50 US Stat…       1.12
10       32261        13 Male  Non-Hispanic Black Born in 50 US Stat…       1.2 
# ℹ 743 more rows
# ℹ 5 more variables: dental.decay.present <lgl>,
#   dental.restoration.present <lgl>, plasma.glucose <dbl>, hba1c <dbl>,
#   bmi <dbl>

filter(nhanes, sex == "Male" & !is.na(hba1c))

# A tibble: 1,561 × 11
   sequence.id age.years sex   ethnicity                   birthplace family.PIR
         <dbl>     <dbl> <chr> <chr>                       <chr>           <dbl>
 1       32326        16 Male  Non-Hispanic Black          Born in 5…       1.24
 2       32369        15 Male  Other Race - Including Mul… Born in 5…       0.93
 3       31129        15 Male  Non-Hispanic Black          Born in 5…       2.71
 4       31458        13 Male  Mexican American            Born in 5…       3.76
 5       31763        18 Male  Mexican American            Born in 5…       3.1 
 6       31848        16 Male  Non-Hispanic White          Born in 5…       5   
 7       31882        16 Male  Non-Hispanic White          Born in 5…       1.82
 8       32758        13 Male  Non-Hispanic Black          Born in 5…       1.72
 9       32831        15 Male  Mexican American            Born in 5…       1.03
10       32840        13 Male  Non-Hispanic White          Born in 5…       5   
# ℹ 1,551 more rows
# ℹ 5 more variables: dental.decay.present <lgl>,
#   dental.restoration.present <lgl>, plasma.glucose <dbl>, hba1c <dbl>,
#   bmi <dbl>

Pipes

What if you want to select and filter at the same time? There are three ways to do this: use intermediate steps, nested functions, or pipes.

With intermediate steps, you create a temporary data frame and use that as input to the next function, like this:

nhanes2 <- filter(nhanes, sex == "Male")
nhanes3 <- select(nhanes2, sex, age.years, dental.decay.present, hba1c)
nhanes3

# A tibble: 1,703 × 4
   sex   age.years dental.decay.present hba1c
   <chr>     <dbl> <lgl>                <dbl>
 1 Male         16 FALSE                  6.2
 2 Male         15 FALSE                  5.3
 3 Male         15 FALSE                  5.2
 4 Male         13 FALSE                  5.1
 5 Male         18 FALSE                  5.2
 6 Male         16 FALSE                  5  
 7 Male         16 FALSE                  4.5
 8 Male         13 FALSE                  5.4
 9 Male         15 FALSE                  4.5
10 Male         13 FALSE                  5.1
# ℹ 1,693 more rows

This is readable, but can clutter up your workspace with lots of intermediate objects that you have to name individually. With multiple steps, that can be hard to keep track of.

You can also nest functions (i.e. one function inside of another), like this:

nhanes3 <- select(filter(nhanes, sex == "Male"), sex, age.years, dental.decay.present, hba1c)
nhanes3

# A tibble: 1,703 × 4
   sex   age.years dental.decay.present hba1c
   <chr>     <dbl> <lgl>                <dbl>
 1 Male         16 FALSE                  6.2
 2 Male         15 FALSE                  5.3
 3 Male         15 FALSE                  5.2
 4 Male         13 FALSE                  5.1
 5 Male         18 FALSE                  5.2
 6 Male         16 FALSE                  5  
 7 Male         16 FALSE                  4.5
 8 Male         13 FALSE                  5.4
 9 Male         15 FALSE                  4.5
10 Male         13 FALSE                  5.1
# ℹ 1,693 more rows
This is handy, but can be difficult to read if too many functions are nested, as R evaluates the expression from the inside out (in this case, filtering, then selecting).

The last option, pipes, are a recent addition to R. Pipes let you take the output of one function and send it directly to the next, which is useful when you need to do many things to the same dataset.

Pipes in R look like %>% (made available via the magrittr package) or |> (through base R). If you use RStudio, you can type the pipe with Ctrl + Shift + M if you have a PC or Cmd + Shift + M if you have a Mac.

In the above code, we use the pipe to send the nhanes dataset first through filter() to keep rows where sex is Male, then through select() to keep only the selected columns.

The pipe %>% takes the object on its left and passes it directly as the first argument to the function on its right, we don’t need to explicitly include the data frame as an argument to the filter() and select() functions any more.

nhanes %>%
  filter(sex == "Male") %>%
  select(sex, age.years, dental.decay.present, hba1c)

# A tibble: 1,703 × 4
   sex   age.years dental.decay.present hba1c
   <chr>     <dbl> <lgl>                <dbl>
 1 Male         16 FALSE                  6.2
 2 Male         15 FALSE                  5.3
 3 Male         15 FALSE                  5.2
 4 Male         13 FALSE                  5.1
 5 Male         18 FALSE                  5.2
 6 Male         16 FALSE                  5  
 7 Male         16 FALSE                  4.5
 8 Male         13 FALSE                  5.4
 9 Male         15 FALSE                  4.5
10 Male         13 FALSE                  5.1
# ℹ 1,693 more rows

Some may find it helpful to read the pipe like the word “then”. For instance, in the above example, we took the data frame rna, then we filtered for rows with sex == "Male", then we selected columns sex, age.years, dental.decay.present, and hba1c.

The dplyr functions by themselves are somewhat simple, but by combining them into linear workflows with the pipe, we can accomplish more complex manipulations of data frames.

If we want to create a new object with this smaller version of the data, we can assign it a new name:

nhanes3 %>%
  filter(sex == "Male") %>%
  select(sex, age.years, dental.decay.present, hba1c)

# A tibble: 1,703 × 4
   sex   age.years dental.decay.present hba1c
   <chr>     <dbl> <lgl>                <dbl>
 1 Male         16 FALSE                  6.2
 2 Male         15 FALSE                  5.3
 3 Male         15 FALSE                  5.2
 4 Male         13 FALSE                  5.1
 5 Male         18 FALSE                  5.2
 6 Male         16 FALSE                  5  
 7 Male         16 FALSE                  4.5
 8 Male         13 FALSE                  5.4
 9 Male         15 FALSE                  4.5
10 Male         13 FALSE                  5.1
# ℹ 1,693 more rows

nhanes3

# A tibble: 1,703 × 4
   sex   age.years dental.decay.present hba1c
   <chr>     <dbl> <lgl>                <dbl>
 1 Male         16 FALSE                  6.2
 2 Male         15 FALSE                  5.3
 3 Male         15 FALSE                  5.2
 4 Male         13 FALSE                  5.1
 5 Male         18 FALSE                  5.2
 6 Male         16 FALSE                  5  
 7 Male         16 FALSE                  4.5
 8 Male         13 FALSE                  5.4
 9 Male         15 FALSE                  4.5
10 Male         13 FALSE                  5.1
# ℹ 1,693 more rows

Challenge:

Using pipes, subset the nhanes data to keep female participants 15 years or older, where the hba1c is greater than 5.2 (and is not NA), and retain only the columns sex, age.years, and plasma.glucose.

Solution

nhanes %>%
  filter(hba1c > 5.2,
         sex == "Female",
         age.years >= 15 ) %>%
  select(sex, age.years, plasma.glucose)

# A tibble: 319 × 3
   sex    age.years plasma.glucose
   <chr>      <dbl>          <dbl>
 1 Female        16            132
 2 Female        16             NA
 3 Female        17             90
 4 Female        15             90
 5 Female        15             83
 6 Female        18             92
 7 Female        17             NA
 8 Female        17             NA
 9 Female        17             79
10 Female        18             93
# ℹ 309 more rows

Mutate

Frequently you’ll want to create new columns based on the values of existing columns, for example to do unit conversions, or to find the ratio of values in two columns. For this we’ll use mutate().

To create a new column of age in months:

nhanes %>%
  mutate(age.months = age.years * 12) %>%
  select(age.months, age.years)

# A tibble: 3,346 × 2
   age.months age.years
        <dbl>     <dbl>
 1        156        13
 2        180        15
 3        192        16
 4        180        15
 5        156        13
 6        180        15
 7        180        15
 8        192        16
 9        192        16
10        156        13
# ℹ 3,336 more rows

You can also create a second new column based on the first new column within the same call of mutate():

nhanes %>%
  mutate(age.months = age.years * 12,
         lived_200_months = age.months >= 200) %>%
  select(age.months, age.years, lived_200_months)

# A tibble: 3,346 × 3
   age.months age.years lived_200_months
        <dbl>     <dbl> <lgl>           
 1        156        13 FALSE           
 2        180        15 FALSE           
 3        192        16 FALSE           
 4        180        15 FALSE           
 5        156        13 FALSE           
 6        180        15 FALSE           
 7        180        15 FALSE           
 8        192        16 FALSE           
 9        192        16 FALSE           
10        156        13 FALSE           
# ℹ 3,336 more rows

Challenge

Create a new data frame from the nhanes data that meets the following criteria: contains the columns sex, under_14, ethnicity, and family.PIR columns. The under_14 column should be a logical variable indicating whether or not the age of the participant is less than 14. This data frame must only contain participants born in the USA or Mexico, have a non-missing plasma glucose value, and with a BMI less than 30.

Solution

nhanes %>%
  mutate(under_14 = age.years < 14) %>%
  filter(birthplace == 'Born in 50 US States or Washi' | birthplace == "Born in Mexico") %>%
  filter(!is.na(plasma.glucose)) %>%
  filter(bmi < 30) %>%
  select(sex, under_14, ethnicity, family.PIR)

# A tibble: 1,147 × 4
   sex    under_14 ethnicity          family.PIR
   <chr>  <lgl>    <chr>                   <dbl>
 1 Female TRUE     Non-Hispanic White       5   
 2 Female FALSE    Non-Hispanic Black       0.67
 3 Female FALSE    Non-Hispanic White       1.06
 4 Male   FALSE    Non-Hispanic White       1.82
 5 Male   TRUE     Non-Hispanic Black       1.72
 6 Male   FALSE    Mexican American         1.03
 7 Male   FALSE    Non-Hispanic Black       0.73
 8 Male   FALSE    Mexican American        NA   
 9 Female FALSE    Non-Hispanic White       1.2 
10 Male   FALSE    Non-Hispanic Black       2.23
# ℹ 1,137 more rows

Split-apply-combine data analysis

Many data analysis tasks can be approached using the split-apply-combine paradigm: split the data into groups, apply some analysis to each group, and then combine the results. dplyr makes this very easy through the use of the group_by() function.

nhanes %>%
  group_by(birthplace)

# A tibble: 3,346 × 11
# Groups:   birthplace [7]
   sequence.id age.years sex    ethnicity                  birthplace family.PIR
         <dbl>     <dbl> <chr>  <chr>                      <chr>           <dbl>
 1       31521        13 Female Non-Hispanic White         Born in 5…       5   
 2       31981        15 Female Non-Hispanic Black         Born in 5…       0.67
 3       32326        16 Male   Non-Hispanic Black         Born in 5…       1.24
 4       32369        15 Male   Other Race - Including Mu… Born in 5…       0.93
 5       32537        13 Female Mexican American           Born in 5…       4.13
 6       32604        15 Female Non-Hispanic White         Born in 5…       5   
 7       31129        15 Male   Non-Hispanic Black         Born in 5…       2.71
 8       31148        16 Female Non-Hispanic White         Born in 5…       1.06
 9       31347        16 Female Non-Hispanic White         Born in 5…       3.1 
10       31458        13 Male   Mexican American           Born in 5…       3.76
# ℹ 3,336 more rows
# ℹ 5 more variables: dental.decay.present <lgl>,
#   dental.restoration.present <lgl>, plasma.glucose <dbl>, hba1c <dbl>,
#   bmi <dbl>

The group_by() function doesn’t perform any data processing, it groups the data into subsets: in the example above, our initial tibble of 3346 observations is split into 7 groups based on the birthplace variable.

We could similarly decide to group the tibble by sex:

nhanes %>%
  group_by(sex)

# A tibble: 3,346 × 11
# Groups:   sex [2]
   sequence.id age.years sex    ethnicity                  birthplace family.PIR
         <dbl>     <dbl> <chr>  <chr>                      <chr>           <dbl>
 1       31521        13 Female Non-Hispanic White         Born in 5…       5   
 2       31981        15 Female Non-Hispanic Black         Born in 5…       0.67
 3       32326        16 Male   Non-Hispanic Black         Born in 5…       1.24
 4       32369        15 Male   Other Race - Including Mu… Born in 5…       0.93
 5       32537        13 Female Mexican American           Born in 5…       4.13
 6       32604        15 Female Non-Hispanic White         Born in 5…       5   
 7       31129        15 Male   Non-Hispanic Black         Born in 5…       2.71
 8       31148        16 Female Non-Hispanic White         Born in 5…       1.06
 9       31347        16 Female Non-Hispanic White         Born in 5…       3.1 
10       31458        13 Male   Mexican American           Born in 5…       3.76
# ℹ 3,336 more rows
# ℹ 5 more variables: dental.decay.present <lgl>,
#   dental.restoration.present <lgl>, plasma.glucose <dbl>, hba1c <dbl>,
#   bmi <dbl>
…
