Research Design and Analysis – ggplot-basics
…
If we wanted to plot the number of cases with specific symptoms, we are limited by the fact that each symptom is a specific column. However, we can pivot the symptoms columns to a longer format like this:

symptoms_data_long <- symptoms_data %>%    # begin with "mini" linelist called symptoms_data
  
  pivot_longer(
    cols = -case_id,                       # pivot all columns except case_id (all the symptoms columns)
    names_to = "symptom_name",             # assign name for new column that holds the symptoms
    values_to = "symptom_is_present") %>%  # assign name for new column that holds the values (yes/no)
  
  mutate(symptom_is_present = replace_na(symptom_is_present, "unknown")) # convert NA to "unknown"

Here are the first 50 rows. Note that case has 5 rows - one for each possible symptom. The new columns symptom_name and symptom_is_present are the result of the pivot. Note that this format may not be very useful for other operations, but is useful for plotting.

# A tibble: 50 × 3
   case_id symptom_name symptom_is_present
   <chr>   <chr>        <chr>             
 1 5fe599  fever        no                
 2 5fe599  chills       no                
 3 5fe599  cough        yes               
 4 5fe599  aches        no                
 5 5fe599  vomit        yes               
 6 8689b7  fever        unknown           
 7 8689b7  chills       unknown           
 8 8689b7  cough        unknown           
 9 8689b7  aches        unknown           
10 8689b7  vomit        unknown           
# ℹ 40 more rows
…
For facet_wrap() most often you will write only one column preceded by a tilde ~ like facet_wrap(~hospital). However you can write two columns facet_wrap(outcome ~ hospital) - each unique combination will display in a separate panel, but they will not be arranged in a grid. The headings will show combined terms and these won’t be specific logic to the columns vs. rows. If you are providing only one faceting variable, a period . is used as a placeholder on the other side of the formula - see the code examples.

For facet_grid() you can also specify one or two columns to the formula (grid rows ~ columns). If you only want to specify one, you can place a period . on the other side of the tilde like facet_grid(. ~ hospital) or facet_grid(hospital ~ .).

Facets can quickly contain an overwhelming amount of information - its good to ensure you don’t have too many levels of each variable that you choose to facet by. Here are some quick examples with the malaria dataset which consists of daily case counts of malaria for facilities, by age group.

Below we import and do some quick modifications for simplicity:

# These data are daily counts of malaria cases, by facility-day
malaria_data <- import("data/malaria_facility_count_data.rds") %>%  # import
  select(-submitted_date, -Province, -newid)                                 # remove unneeded columns

The first 50 rows of the malaria data are below. Note there is a column malaria_tot, but also columns for counts by age group (these will be used in the second, facet_grid() example).

# A tibble: 50 × 7
   location_name data_date  District `malaria_rdt_0-4` `malaria_rdt_5-14`
   <chr>         <date>     <chr>                <int>              <int>
 1 Facility 1    2020-08-11 Spring                  11                 12
 2 Facility 2    2020-08-11 Bolo                    11                 10
 3 Facility 3    2020-08-11 Dingo                    8                  5
 4 Facility 4    2020-08-11 Bolo                    16                 16
 5 Facility 5    2020-08-11 Bolo                     9                  2
 6 Facility 6    2020-08-11 Dingo                    3                  1
 7 Facility 6    2020-08-10 Dingo                    4                  0
 8 Facility 5    2020-08-10 Bolo                    15                 14
 9 Facility 5    2020-08-09 Bolo                    11                 11
10 Facility 5    2020-08-08 Bolo                    19                 15
# ℹ 40 more rows
# ℹ 2 more variables: malaria_rdt_15 <int>, malaria_tot <int>
…
malaria_age <- malaria_data %>%
  select(-malaria_tot) %>% 
  pivot_longer(
    cols = c(starts_with("malaria_rdt_")),  # choose columns to pivot longer
    names_to = "age_group",      # column names become age group
    values_to = "num_cases"      # values to a single column (num_cases)
  ) %>%
  mutate(
    age_group = str_replace(age_group, "malaria_rdt_", ""),
    age_group = forcats::fct_relevel(age_group, "5-14", after = 1))

Now the first 50 rows of data look like this:

# A tibble: 50 × 5
   location_name data_date  District age_group num_cases
   <chr>         <date>     <chr>    <fct>         <int>
 1 Facility 1    2020-08-11 Spring   0-4              11
 2 Facility 1    2020-08-11 Spring   5-14             12
 3 Facility 1    2020-08-11 Spring   15               23
 4 Facility 2    2020-08-11 Bolo     0-4              11
 5 Facility 2    2020-08-11 Bolo     5-14             10
 6 Facility 2    2020-08-11 Bolo     15                5
 7 Facility 3    2020-08-11 Dingo    0-4               8
 8 Facility 3    2020-08-11 Dingo    5-14              5
 9 Facility 3    2020-08-11 Dingo    15                5
10 Facility 4    2020-08-11 Bolo     0-4              16
# ℹ 40 more rows
…
