Research Design and Analysis - Week 5: Exploratory analysis and basic tests
…
[1] 9.922401e-06

res$statistic

X-squared 
 28.48993 

Calculating statistics by group

Many data analysis tasks can be approached using the split-apply-combine paradigm: split the data into groups, apply some analysis to each group, and then combine the results. dplyr makes this very easy through the use of the group_by() function.

nhanes %>%
  group_by(birthplace)

# A tibble: 3,346 × 32
# Groups:   birthplace [3]
    SEQN RIDAGEYR RIAGENDR RIDRETH1   DMDBORN INDFMPIR SDMVPSU SDMVSTRA WTINT2YR
   <dbl>    <dbl> <chr>    <chr>      <chr>      <dbl>   <dbl>    <dbl>    <dbl>
 1 31129       15 Male     Non-Hispa… Born i…     2.71       1       51    5317.
 2 31133       16 Female   Non-Hispa… Born i…     5          1       51    5635.
 3 31139       18 Female   Other His… Born i…     4.91       1       44    5676.
 4 31141       16 Male     Mexican A… Born i…     5          2       48    6332.
 5 31148       16 Female   Non-Hispa… Born i…     1.06       1       50   20536.
 6 31163       17 Male     Non-Hispa… Born i…     2.23       1       56    6425.
 7 31166       15 Male     Non-Hispa… Born i…     0.75       1       55   30180.
 8 31170       14 Male     Other Rac… Born i…     3          2       46   34800.
 9 31177       18 Female   Non-Hispa… Born i…     1.12       2       49    8767.
10 31178       14 Female   Mexican A… Born i…     4.07       1       57    6190.
# ℹ 3,336 more rows
# ℹ 23 more variables: WTMEC2YR <dbl>, OHXDECAY <lgl>, OHXREST <lgl>,
#   LBXGLU <dbl>, WTSAF2YR <dbl>, LBXGH <dbl>, BMXBMI <dbl>, Begin.Year <dbl>,
#   EndYear <dbl>, age.cat <chr>, plasma.glucose.cat <chr>, hba1c.cat <chr>,
#   bmi.cat <chr>, family.PIR.cat <chr>, birthplace <chr>, dental.caries <lgl>,
#   diabetes <chr>, DIQ010 <chr>, DID040 <dbl>, DIQ160 <chr>, DIQ050 <chr>,
#   diabetes.DIQ <chr>, in.study <lgl>

The group_by() function doesn’t perform any data processing, it groups the data into subsets: in the example above, our initial tibble of 3346 observations is split into 3 groups based on the birthplace variable.

We could similarly decide to group the tibble by sex:

nhanes %>%
  group_by(RIAGENDR)

# A tibble: 3,346 × 32
# Groups:   RIAGENDR [2]
    SEQN RIDAGEYR RIAGENDR RIDRETH1   DMDBORN INDFMPIR SDMVPSU SDMVSTRA WTINT2YR
   <dbl>    <dbl> <chr>    <chr>      <chr>      <dbl>   <dbl>    <dbl>    <dbl>
 1 31129       15 Male     Non-Hispa… Born i…     2.71       1       51    5317.
 2 31133       16 Female   Non-Hispa… Born i…     5          1       51    5635.
 3 31139       18 Female   Other His… Born i…     4.91       1       44    5676.
 4 31141       16 Male     Mexican A… Born i…     5          2       48    6332.
 5 31148       16 Female   Non-Hispa… Born i…     1.06       1       50   20536.
 6 31163       17 Male     Non-Hispa… Born i…     2.23       1       56    6425.
 7 31166       15 Male     Non-Hispa… Born i…     0.75       1       55   30180.
 8 31170       14 Male     Other Rac… Born i…     3          2       46   34800.
 9 31177       18 Female   Non-Hispa… Born i…     1.12       2       49    8767.
10 31178       14 Female   Mexican A… Born i…     4.07       1       57    6190.
# ℹ 3,336 more rows
# ℹ 23 more variables: WTMEC2YR <dbl>, OHXDECAY <lgl>, OHXREST <lgl>,
#   LBXGLU <dbl>, WTSAF2YR <dbl>, LBXGH <dbl>, BMXBMI <dbl>, Begin.Year <dbl>,
#   EndYear <dbl>, age.cat <chr>, plasma.glucose.cat <chr>, hba1c.cat <chr>,
#   bmi.cat <chr>, family.PIR.cat <chr>, birthplace <chr>, dental.caries <lgl>,
#   diabetes <chr>, DIQ010 <chr>, DID040 <dbl>, DIQ160 <chr>, DIQ050 <chr>,
#   diabetes.DIQ <chr>, in.study <lgl>
…
But we can can also group by multiple columns:

nhanes %>%
  group_by(BMXBMI, RIDRETH1) %>%
  summarise(mean_bmi = mean(BMXBMI, na.rm = TRUE))

`summarise()` has grouped output by 'BMXBMI'. You can override using the
`.groups` argument.

# A tibble: 2,616 × 3
# Groups:   BMXBMI [1,590]
   BMXBMI RIDRETH1                       mean_bmi
    <dbl> <chr>                             <dbl>
 1   13.3 Other Race - Including Multi-R     13.3
 2   13.4 Non-Hispanic Black                 13.4
 3   14.1 Non-Hispanic White                 14.1
 4   14.1 Mexican American                   14.1
 5   14.4 Other Hispanic                     14.4
 6   14.4 Non-Hispanic White                 14.4
 7   14.4 Other Race - Including Multi-R     14.4
 8   14.6 Non-Hispanic White                 14.6
 9   14.6 Non-Hispanic White                 14.6
10   14.6 Mexican American                   14.6
# ℹ 2,606 more rows

Once the data is grouped, you can also summarise multiple variables at the same time (and not necessarily on the same variable). For instance, we could add columns indicating the mean and median plasma glucose (LBXGLU) by sex and ethnicity:

nhanes %>%
  group_by(RIDAGEYR, age.cat, RIDRETH1) %>%
  summarise(mean_plasma_glucose = mean(LBXGLU, na.rm = TRUE),
            median_plasma_glucose = median(LBXGLU, na.rm = TRUE))

`summarise()` has grouped output by 'RIDAGEYR', 'age.cat'. You can override
using the `.groups` argument.

# A tibble: 30 × 5
# Groups:   RIDAGEYR, age.cat [6]
   RIDAGEYR age.cat RIDRETH1           mean_plasma_glucose median_plasma_glucose
      <dbl> <chr>   <chr>                            <dbl>                 <dbl>
 1       13 13-15   Mexican American                  98.5                  95  
 2       13 13-15   Non-Hispanic Black                93.4                  93.5
 3       13 13-15   Non-Hispanic White                94.6                  94  
 4       13 13-15   Other Hispanic                    97.5                  99  
 5       13 13-15   Other Race - Incl…                95.8                  94  
 6       14 13-15   Mexican American                  97.5                  94  
 7       14 13-15   Non-Hispanic Black                91.9                  91  
 8       14 13-15   Non-Hispanic White                94.4                  94  
 9       14 13-15   Other Hispanic                    96.0                  94  
10       14 13-15   Other Race - Incl…                95.8                  97  
# ℹ 20 more rows
…
